%YAML 1.1
%TAG !u! tag:unity3d.com,2011:
--- !u!29 &1
OcclusionCullingSettings:
  m_ObjectHideFlags: 0
  serializedVersion: 2
  m_OcclusionBakeSettings:
    smallestOccluder: 5
    smallestHole: 0.25
    backfaceThreshold: 100
  m_SceneGUID: 00000000000000000000000000000000
  m_OcclusionCullingData: {fileID: 0}
--- !u!104 &2
RenderSettings:
  m_ObjectHideFlags: 0
  serializedVersion: 9
  m_Fog: 0
  m_FogColor: {r: 0.5, g: 0.5, b: 0.5, a: 1}
  m_FogMode: 3
  m_FogDensity: 0.01
  m_LinearFogStart: 0
  m_LinearFogEnd: 300
  m_AmbientSkyColor: {r: 0.212, g: 0.227, b: 0.259, a: 1}
  m_AmbientEquatorColor: {r: 0.114, g: 0.125, b: 0.133, a: 1}
  m_AmbientGroundColor: {r: 0.047, g: 0.043, b: 0.035, a: 1}
  m_AmbientIntensity: 1
  m_AmbientMode: 0
  m_SubtractiveShadowColor: {r: 0.42, g: 0.478, b: 0.627, a: 1}
  m_SkyboxMaterial: {fileID: 10304, guid: 0000000000000000f000000000000000, type: 0}
  m_HaloStrength: 0.5
  m_FlareStrength: 1
  m_FlareFadeSpeed: 3
  m_HaloTexture: {fileID: 0}
  m_SpotCookie: {fileID: 10001, guid: 0000000000000000e000000000000000, type: 0}
  m_DefaultReflectionMode: 0
  m_DefaultReflectionResolution: 128
  m_ReflectionBounces: 1
  m_ReflectionIntensity: 1
  m_CustomReflection: {fileID: 0}
  m_Sun: {fileID: 0}
  m_IndirectSpecularColor: {r: 0.37311953, g: 0.38074014, b: 0.3587274, a: 1}
  m_UseRadianceAmbientProbe: 0
--- !u!157 &3
LightmapSettings:
  m_ObjectHideFlags: 0
  serializedVersion: 11
  m_GIWorkflowMode: 0
  m_GISettings:
    serializedVersion: 2
    m_BounceScale: 1
    m_IndirectOutputScale: 1
    m_AlbedoBoost: 1
    m_EnvironmentLightingMode: 0
    m_EnableBakedLightmaps: 1
    m_EnableRealtimeLightmaps: 0
  m_LightmapEditorSettings:
    serializedVersion: 10
    m_Resolution: 2
    m_BakeResolution: 10
    m_AtlasSize: 512
    m_AO: 0
    m_AOMaxDistance: 1
    m_CompAOExponent: 1
    m_CompAOExponentDirect: 0
    m_Padding: 2
    m_LightmapParameters: {fileID: 0}
    m_LightmapsBakeMode: 1
    m_TextureCompression: 1
    m_FinalGather: 0
    m_FinalGatherFiltering: 1
    m_FinalGatherRayCount: 256
    m_ReflectionCompression: 2
    m_MixedBakeMode: 2
    m_BakeBackend: 1
    m_PVRSampling: 1
    m_PVRDirectSampleCount: 32
    m_PVRSampleCount: 256
    m_PVRBounces: 2
    m_PVRFilterTypeDirect: 0
    m_PVRFilterTypeIndirect: 0
    m_PVRFilterTypeAO: 0
    m_PVRFilteringMode: 1
    m_PVRCulling: 1
    m_PVRFilteringGaussRadiusDirect: 1
    m_PVRFilteringGaussRadiusIndirect: 5
    m_PVRFilteringGaussRadiusAO: 2
    m_PVRFilteringAtrousPositionSigmaDirect: 0.5
    m_PVRFilteringAtrousPositionSigmaIndirect: 2
    m_PVRFilteringAtrousPositionSigmaAO: 1
    m_ShowResolutionOverlay: 1
  m_LightingDataAsset: {fileID: 0}
  m_UseShadowmask: 1
--- !u!196 &4
NavMeshSettings:
  serializedVersion: 2
  m_ObjectHideFlags: 0
  m_BuildSettings:
    serializedVersion: 2
    agentTypeID: 0
    agentRadius: 0.5
    agentHeight: 2
    agentSlope: 45
    agentClimb: 0.4
    ledgeDropHeight: 0
    maxJumpAcrossDistance: 0
    minRegionArea: 2
    manualCellSize: 0
    cellSize: 0.16666667
    manualTileSize: 0
    tileSize: 256
    accuratePlacement: 0
    debug:
      m_Flags: 0
  m_NavMeshData: {fileID: 0}
--- !u!1 &458331996
GameObject:
  m_ObjectHideFlags: 0
  m_CorrespondingSourceObject: {fileID: 0}
  m_PrefabInstance: {fileID: 0}
  m_PrefabAsset: {fileID: 0}
  serializedVersion: 6
  m_Component:
  - component: {fileID: 458331999}
  - component: {fileID: 458331998}
  - component: {fileID: 458331997}
  m_Layer: 0
  m_Name: Scene Variables
  m_TagString: Untagged
  m_Icon: {fileID: 0}
  m_NavMeshLayer: 0
  m_StaticEditorFlags: 0
  m_IsActive: 1
--- !u!114 &458331997
MonoBehaviour:
  m_ObjectHideFlags: 0
  m_CorrespondingSourceObject: {fileID: 0}
  m_PrefabInstance: {fileID: 0}
  m_PrefabAsset: {fileID: 0}
  m_GameObject: {fileID: 458331996}
  m_Enabled: 1
  m_EditorHideFlags: 0
  m_Script: {fileID: 995777834, guid: c8d0ad23af520fe46aabe2b1fecf6462, type: 3}
  m_Name: 
  m_EditorClassIdentifier: 
--- !u!114 &458331998
MonoBehaviour:
  m_ObjectHideFlags: 0
  m_CorrespondingSourceObject: {fileID: 0}
  m_PrefabInstance: {fileID: 0}
  m_PrefabAsset: {fileID: 0}
  m_GameObject: {fileID: 458331996}
  m_Enabled: 1
  m_EditorHideFlags: 0
  m_Script: {fileID: -1465209106, guid: c8d0ad23af520fe46aabe2b1fecf6462, type: 3}
  m_Name: 
  m_EditorClassIdentifier: 
  _data:
    _json: '{"declarations":{"collection":{"$content":[],"$version":"A"},"$version":"A"}}'
    _objectReferences: []
--- !u!4 &458331999
Transform:
  m_ObjectHideFlags: 0
  m_CorrespondingSourceObject: {fileID: 0}
  m_PrefabInstance: {fileID: 0}
  m_PrefabAsset: {fileID: 0}
  m_GameObject: {fileID: 458331996}
  m_LocalRotation: {x: 0, y: 0, z: 0, w: 1}
  m_LocalPosition: {x: 0, y: 0, z: 0}
  m_LocalScale: {x: 1, y: 1, z: 1}
  m_Children: []
  m_Father: {fileID: 0}
  m_RootOrder: 1
  m_LocalEulerAnglesHint: {x: 0, y: 0, z: 0}
--- !u!1 &581290790
GameObject:
  m_ObjectHideFlags: 0
  m_CorrespondingSourceObject: {fileID: 0}
  m_PrefabInstance: {fileID: 0}
  m_PrefabAsset: {fileID: 0}
  serializedVersion: 6
  m_Component:
  - component: {fileID: 581290791}
  - component: {fileID: 581290793}
  - component: {fileID: 581290792}
  m_Layer: 0
  m_Name: BoltTestObject
  m_TagString: Untagged
  m_Icon: {fileID: 0}
  m_NavMeshLayer: 0
  m_StaticEditorFlags: 0
  m_IsActive: 1
--- !u!4 &581290791
Transform:
  m_ObjectHideFlags: 0
  m_CorrespondingSourceObject: {fileID: 0}
  m_PrefabInstance: {fileID: 0}
  m_PrefabAsset: {fileID: 0}
  m_GameObject: {fileID: 581290790}
  m_LocalRotation: {x: 0, y: 0, z: 0, w: 1}
  m_LocalPosition: {x: 0, y: 0, z: 0}
  m_LocalScale: {x: 1, y: 1, z: 1}
  m_Children: []
  m_Father: {fileID: 0}
  m_RootOrder: 0
  m_LocalEulerAnglesHint: {x: 0, y: 0, z: 0}
--- !u!114 &581290792
MonoBehaviour:
  m_ObjectHideFlags: 0
  m_CorrespondingSourceObject: {fileID: 0}
  m_PrefabInstance: {fileID: 0}
  m_PrefabAsset: {fileID: 0}
  m_GameObject: {fileID: 581290790}
  m_Enabled: 1
  m_EditorHideFlags: 0
  m_Script: {fileID: -1999370065, guid: dcd2196c4e9166f499793f2007fcda35, type: 3}
  m_Name: 
  m_EditorClassIdentifier: 
  _data:
    _json: '{"nest":{"source":"Embed","macro":null,"embed":{"title":"TestMachine","summary":"Check
      and Uncheck GameObject","pan":{"x":0.0,"y":0.0},"zoom":1.0,"elements":[{"nest":{"source":"Embed","macro":null,"embed":{"variables":{"collection":{"$content":[],"$version":"A"},"$version":"A"},"controlInputDefinitions":[],"controlOutputDefinitions":[],"valueInputDefinitions":[],"valueOutputDefinitions":[],"title":"Start","summary":null,"pan":{"x":0.0,"y":0.0},"zoom":1.0,"elements":[],"$version":"A"}},"isStart":true,"position":{"x":-286.0,"y":-148.0},"width":170.0,"guid":"078dc3c7-cdcf-407c-aa13-85451301e4c8","$version":"A","$type":"Bolt.FlowState","$id":"4"},{"nest":{"source":"Embed","macro":null,"embed":{"variables":{"collection":{"$content":[],"$version":"A"},"$version":"A"},"controlInputDefinitions":[],"controlOutputDefinitions":[],"valueInputDefinitions":[],"valueOutputDefinitions":[],"title":null,"summary":null,"pan":{"x":0.0,"y":0.0},"zoom":1.0,"elements":[{"coroutine":false,"defaultValues":{},"position":{"x":-205.0,"y":-215.0},"guid":"909c20e1-2dfd-4c0a-a499-ab59e107e936","$version":"A","$type":"Bolt.OnEnterState","$id":"24"},{"coroutine":false,"defaultValues":{},"position":{"x":-205.0,"y":145.0},"guid":"b5a982fe-13cc-4556-99f5-4bb674651358","$version":"A","$type":"Bolt.OnExitState","$id":"26"},{"chainable":false,"member":{"name":"Log","parameterTypes":["System.Object"],"targetType":"UnityEngine.Debug","targetTypeName":"UnityEngine.Debug","$version":"A"},"defaultValues":{},"position":{"x":80.0,"y":-225.0},"guid":"868abad1-a3b0-4940-b5ce-3a301dee00b4","$version":"A","$type":"Bolt.InvokeMember","$id":"28"},{"type":"System.String","value":{"$content":"Start
      enabled","$type":"System.String"},"defaultValues":{},"position":{"x":-139.0,"y":-96.0},"guid":"9c10f3b5-31b7-46d8-b5d8-3ef4406c2c18","$version":"A","$type":"Bolt.Literal","$id":"31"},{"chainable":false,"member":{"name":"Log","parameterTypes":["System.Object"],"targetType":"UnityEngine.Debug","targetTypeName":"UnityEngine.Debug","$version":"A"},"defaultValues":{},"position":{"x":11.0,"y":143.0},"guid":"f9ae9b26-263e-492b-9cbf-24aeaed7dd19","$version":"A","$type":"Bolt.InvokeMember","$id":"33"},{"type":"System.String","value":{"$content":"Start
      disabled","$type":"System.String"},"defaultValues":{},"position":{"x":-208.0,"y":271.0},"guid":"b2b1efb2-623f-419c-bbcf-57eaece56e0c","$version":"A","$type":"Bolt.Literal","$id":"36"},{"sourceUnit":{"$ref":"24"},"sourceKey":"trigger","destinationUnit":{"$ref":"28"},"destinationKey":"enter","guid":"6cc0e160-7e0c-47ae-8743-156345197f6d","$type":"Bolt.ControlConnection"},{"sourceUnit":{"$ref":"26"},"sourceKey":"trigger","destinationUnit":{"$ref":"33"},"destinationKey":"enter","guid":"022731de-386a-436d-befe-b5b1b6f90611","$type":"Bolt.ControlConnection"},{"sourceUnit":{"$ref":"31"},"sourceKey":"output","destinationUnit":{"$ref":"28"},"destinationKey":"%message","guid":"a0a3b4a9-0f17-43d8-9f54-7cbc9787a926","$type":"Bolt.ValueConnection"},{"sourceUnit":{"$ref":"36"},"sourceKey":"output","destinationUnit":{"$ref":"33"},"destinationKey":"%message","guid":"50f1dafb-bfc4-46db-b550-65b331023350","$type":"Bolt.ValueConnection"}],"$version":"A"}},"isStart":false,"position":{"x":13.0,"y":-174.0},"width":170.0,"guid":"1ca7d5a8-ef3b-43eb-9e45-58c55ba34357","$version":"A","$type":"Bolt.FlowState","$id":"14"},{"isStart":true,"position":{"x":-297.0,"y":-351.0},"width":170.0,"guid":"d3b8ac58-9b11-46c4-af7c-385ac5e838f7","$type":"Bolt.AnyState","$id":"42"},{"nest":{"source":"Embed","macro":null,"embed":{"variables":{"collection":{"$content":[],"$version":"A"},"$version":"A"},"controlInputDefinitions":[],"controlOutputDefinitions":[],"valueInputDefinitions":[],"valueOutputDefinitions":[],"title":null,"summary":null,"pan":{"x":0.0,"y":0.0},"zoom":1.0,"elements":[{"coroutine":false,"defaultValues":{},"position":{"x":-211.0,"y":-290.0},"guid":"ecebc601-502c-4885-81f8-e827597fa720","$version":"A","$type":"Bolt.OnEnterState","$id":"53"},{"coroutine":false,"defaultValues":{},"position":{"x":-211.0,"y":70.0},"guid":"0bf74ee8-ecd6-4242-9b94-6b2462798ac3","$version":"A","$type":"Bolt.OnExitState","$id":"55"},{"chainable":false,"member":{"name":"Log","parameterTypes":["System.Object"],"targetType":"UnityEngine.Debug","targetTypeName":"UnityEngine.Debug","$version":"A"},"defaultValues":{},"position":{"x":74.0,"y":-300.0},"guid":"c229f063-29ee-412a-93ab-48af9b4aa40b","$version":"A","$type":"Bolt.InvokeMember","$id":"57"},{"type":"System.String","value":{"$content":"AnyState
      enabled","$type":"System.String"},"defaultValues":{},"position":{"x":-145.0,"y":-171.0},"guid":"37acd3e9-e4d7-43bd-9129-81b29280ce2c","$version":"A","$type":"Bolt.Literal","$id":"60"},{"chainable":false,"member":{"name":"Log","parameterTypes":["System.Object"],"targetType":"UnityEngine.Debug","targetTypeName":"UnityEngine.Debug","$version":"A"},"defaultValues":{},"position":{"x":5.0,"y":68.0},"guid":"36f6136f-59c9-4881-b63f-689f40011cb7","$version":"A","$type":"Bolt.InvokeMember","$id":"62"},{"type":"System.String","value":{"$content":"AnyState
      disabled","$type":"System.String"},"defaultValues":{},"position":{"x":-214.0,"y":196.0},"guid":"c1231608-5e34-41b5-8d63-456240894c19","$version":"A","$type":"Bolt.Literal","$id":"65"},{"sourceUnit":{"$ref":"53"},"sourceKey":"trigger","destinationUnit":{"$ref":"57"},"destinationKey":"enter","guid":"c851d94f-e328-4f23-acbf-d7a9a4550cdc","$type":"Bolt.ControlConnection"},{"sourceUnit":{"$ref":"55"},"sourceKey":"trigger","destinationUnit":{"$ref":"62"},"destinationKey":"enter","guid":"64778ea2-8ea5-4850-a1dc-332bb824254e","$type":"Bolt.ControlConnection"},{"sourceUnit":{"$ref":"60"},"sourceKey":"output","destinationUnit":{"$ref":"57"},"destinationKey":"%message","guid":"d6f78931-9de5-4194-8f90-d96ad1b3b031","$type":"Bolt.ValueConnection"},{"sourceUnit":{"$ref":"65"},"sourceKey":"output","destinationUnit":{"$ref":"62"},"destinationKey":"%message","guid":"848d2f45-bd02-4117-bcba-19ca1b354d1e","$type":"Bolt.ValueConnection"}],"$version":"A"}},"isStart":false,"position":{"x":46.0,"y":-368.0},"width":170.0,"guid":"2cb7448b-dacc-40ea-8866-73ac45f725a5","$version":"A","$type":"Bolt.FlowState","$id":"43"},{"nest":{"source":"Embed","macro":null,"embed":{"variables":{"collection":{"$content":[],"$version":"A"},"$version":"A"},"controlInputDefinitions":[],"controlOutputDefinitions":[],"valueInputDefinitions":[],"valueOutputDefinitions":[],"title":null,"summary":null,"pan":{"x":0.0,"y":0.0},"zoom":1.0,"elements":[{"defaultValues":{},"position":{"x":47.0,"y":-53.0},"guid":"778227d5-8236-45f8-b5da-e55ad4fbd557","$version":"A","$type":"Bolt.TriggerStateTransition","$id":"81"},{"coroutine":false,"defaultValues":{},"position":{"x":-179.0,"y":-56.0},"guid":"d16108c1-1725-45c1-ae6a-e2c737f8430c","$version":"A","$type":"Bolt.OnEnterState","$id":"83"},{"sourceUnit":{"$ref":"83"},"sourceKey":"trigger","destinationUnit":{"$ref":"81"},"destinationKey":"trigger","guid":"bf1ab1db-bcf1-4322-8e90-92175bb99b22","$type":"Bolt.ControlConnection"}],"$version":"A"}},"source":{"$ref":"4"},"destination":{"$ref":"14"},"guid":"2e674d81-4e08-4430-ad44-cf63733cb65f","$version":"A","$type":"Bolt.FlowStateTransition"},{"nest":{"source":"Embed","macro":null,"embed":{"variables":{"collection":{"$content":[],"$version":"A"},"$version":"A"},"controlInputDefinitions":[],"controlOutputDefinitions":[],"valueInputDefinitions":[],"valueOutputDefinitions":[],"title":null,"summary":null,"pan":{"x":0.0,"y":0.0},"zoom":1.0,"elements":[{"defaultValues":{},"position":{"x":100.0,"y":-50.0},"guid":"2d4f7a0c-1462-477f-89ba-b9061820d7bc","$version":"A","$type":"Bolt.TriggerStateTransition","$id":"96"},{"coroutine":false,"defaultValues":{},"position":{"x":-195.0,"y":-87.0},"guid":"fad7c91a-6a51-4a83-a7ec-7716bd9152e3","$version":"A","$type":"Bolt.OnEnterState","$id":"98"},{"sourceUnit":{"$ref":"98"},"sourceKey":"trigger","destinationUnit":{"$ref":"96"},"destinationKey":"trigger","guid":"07597f40-f180-4132-8d9d-053b45807c16","$type":"Bolt.ControlConnection"}],"$version":"A"}},"source":{"$ref":"42"},"destination":{"$ref":"43"},"guid":"a9da3f8b-341c-42a2-91ce-06f8c55c4456","$version":"A","$type":"Bolt.FlowStateTransition"}],"$version":"A"}}}'
    _objectReferences: []
--- !u!114 &581290793
MonoBehaviour:
  m_ObjectHideFlags: 0
  m_CorrespondingSourceObject: {fileID: 0}
  m_PrefabInstance: {fileID: 0}
  m_PrefabAsset: {fileID: 0}
  m_GameObject: {fileID: 581290790}
  m_Enabled: 1
  m_EditorHideFlags: 0
  m_Script: {fileID: -1465209106, guid: c8d0ad23af520fe46aabe2b1fecf6462, type: 3}
  m_Name: 
  m_EditorClassIdentifier: 
  _data:
    _json: '{"declarations":{"collection":{"$content":[],"$version":"A"},"$version":"A"}}'
    _objectReferences: []
